<svg width="596" height="188" viewBox="0 0 596 188" fill="none" xmlns="http://www.w3.org/2000/svg">
<path d="M94.2502 5.33126e-07C75.692 -0.00197733 57.5499 5.49938 42.1183 15.8083C26.6867 26.1173 14.6588 40.7709 7.55545 57.9159C0.452148 75.0609 -1.40743 93.9273 2.2119 112.129C5.83122 130.331 14.7669 147.051 27.8888 160.174C41.0108 173.298 57.7297 182.235 75.9312 185.856C94.1327 189.478 112.999 187.62 130.145 180.519C147.291 173.417 161.946 161.391 172.256 145.96C182.567 130.53 188.07 112.388 188.07 93.83C188.044 68.9546 178.151 45.1055 160.562 27.5149C142.974 9.92442 119.126 0.0291177 94.2502 5.33126e-07V5.33126e-07ZM182.25 93.83C182.25 111.235 177.089 128.249 167.42 142.72C157.75 157.192 144.006 168.471 127.926 175.131C111.846 181.792 94.1526 183.535 77.0823 180.139C60.0119 176.744 44.3318 168.362 32.0248 156.055C19.7178 143.748 11.3366 128.068 7.94109 110.998C4.5456 93.9276 6.28829 76.2338 12.9488 60.1539C19.6093 44.074 30.8885 30.3302 45.36 20.6607C59.8315 10.9911 76.8454 5.83 94.2502 5.83C117.582 5.8591 139.95 15.1392 156.451 31.6355C172.951 48.1319 182.236 70.498 182.27 93.83H182.25Z" fill="#6B9458"/>
<path d="M161.19 92.23C151.99 92.23 141.29 83.23 136.19 71.29C138.399 70.0521 140.135 68.1161 141.126 65.7855C142.116 63.4548 142.306 60.8614 141.664 58.4116C141.023 55.9617 139.586 53.7941 137.58 52.2483C135.574 50.7025 133.112 49.8661 130.58 49.87H130.2H129.43C120.97 50.21 114.92 52.42 110.96 56.62C110.294 53.3537 110.657 49.9613 112 46.91L112.92 44.57L110.43 44.21C108.04 43.8791 105.606 44.1085 103.32 44.88C101.39 40.3 99.3197 36.88 95.5897 34.41L94.5897 33.75L93.5897 34.41C89.8097 36.93 87.7997 40.28 85.8797 44.83C83.6238 44.094 81.2299 43.8819 78.8797 44.21L76.3897 44.57L77.3197 46.91C78.6713 49.9507 79.0587 53.3325 78.4297 56.6C74.6097 52.6 68.8097 50.4 60.7797 49.98C60.2796 49.9078 59.775 49.871 59.2697 49.87C56.7284 49.866 54.2582 50.7083 52.2487 52.264C50.2392 53.8196 48.8049 56.0001 48.1721 58.4614C47.5393 60.9226 47.744 63.5245 48.754 65.8565C49.764 68.1885 51.5217 70.1178 53.7497 71.34C48.6097 83.34 37.9297 92.26 28.7497 92.26H28.2197V96.32H28.7497C37.8997 96.32 48.5697 105.24 53.7497 117.13C51.605 118.317 49.8986 120.162 48.8824 122.393C47.8663 124.623 47.5942 127.122 48.1064 129.519C48.6186 131.916 49.8878 134.085 51.7268 135.706C53.5658 137.327 55.8772 138.313 58.3197 138.52V138.58H59.3197C59.8047 138.579 60.2891 138.545 60.7697 138.48C68.8297 138.03 74.6197 135.84 78.4497 131.78C79.1238 135.069 78.7459 138.487 77.3697 141.55L76.4497 143.89L78.9397 144.25C81.3109 144.587 83.7278 144.368 85.9997 143.61C87.8797 147.99 89.8497 151.22 93.5697 153.7L94.5697 154.36L95.5697 153.7C99.2997 151.21 101.28 147.95 103.17 143.54C105.506 144.351 108.001 144.595 110.45 144.25L112.94 143.89L112.01 141.55C110.648 138.512 110.26 135.127 110.9 131.86C114.9 136.03 120.9 138.21 129.43 138.53H130.01H130.54C133.068 138.533 135.526 137.698 137.53 136.155C139.534 134.613 140.97 132.45 141.614 130.005C142.259 127.56 142.075 124.971 141.092 122.641C140.108 120.312 138.381 118.374 136.18 117.13C141.33 105.2 152.01 96.26 161.18 96.26H161.71V92.23H161.19ZM132.48 115.84C132.025 115.741 131.564 115.678 131.1 115.65H130.49V116.18L130.32 115.66C129.955 115.663 129.591 115.686 129.23 115.73C123.62 116.19 115.55 118.64 110.71 123.98C109.22 119.98 108.8 114.77 109.44 108.05V103.81C109.436 101.604 108.736 99.4551 107.44 97.67C110.697 98.8228 114.189 99.1485 117.603 98.6179C121.017 98.0873 124.246 96.717 127 94.63L127.5 94.23L127.01 93.81C121.84 89.44 114.07 88.34 107.35 90.81C108.695 89.0074 109.425 86.8194 109.43 84.57V80.49V80.2C108.8 73.62 109.23 68.46 110.74 64.47C115.62 69.84 123.74 72.26 129.45 72.71L130.52 72.78H131.13C131.6 72.78 132.03 72.71 132.43 72.65C136.56 82.41 144.43 90.74 152.69 94.3C144.33 97.84 136.69 106 132.48 115.84ZM79.9997 108V108.29C80.6297 114.88 80.1997 120.05 78.6897 124.03C74.2697 119.19 67.0997 116.69 61.6897 115.97C60.9131 115.811 60.1225 115.731 59.3297 115.73H58.8897L58.2297 115.79L57.4797 115.89C53.2797 106.03 45.6397 97.89 37.2797 94.35C45.5797 90.78 53.3997 82.45 57.5397 72.68C57.7597 72.68 57.9897 72.75 58.2197 72.77L58.9097 72.84H59.0897L59.1797 72.3L59.3297 72.84C60.0651 72.8381 60.7986 72.7644 61.5197 72.62C66.9797 71.91 74.2297 69.41 78.6697 64.51C80.1597 68.51 80.5797 73.72 79.9397 80.44V84.68C79.9456 86.8827 80.6454 89.0276 81.9397 90.81C78.6784 89.6623 75.1833 89.342 71.7677 89.8778C68.3521 90.4136 65.1229 91.7888 62.3697 93.88L61.8697 94.28L62.3597 94.7C67.5297 99.07 75.2997 100.16 82.0097 97.7C80.662 99.5053 79.9326 101.697 79.9297 103.95L79.9997 108ZM59.1597 119.73C59.7397 119.73 60.3897 119.82 61.0497 119.91C62.7929 120.304 64.336 121.312 65.3967 122.751C66.4575 124.189 66.9652 125.961 66.8268 127.743C66.6884 129.525 65.9133 131.197 64.6432 132.454C63.3731 133.712 61.6928 134.47 59.9097 134.59H59.2297C57.2539 134.599 55.3552 133.823 53.9515 132.433C52.5478 131.042 51.754 129.151 51.7447 127.175C51.7354 125.199 52.5114 123.301 53.902 121.897C55.2926 120.493 57.1839 119.699 59.1597 119.69V119.73ZM60.9997 68.6C60.3397 68.68 59.7297 68.74 59.2297 68.77C57.2763 68.7309 55.4154 67.93 54.0442 66.5382C52.6729 65.1464 51.8998 63.2738 51.8897 61.32C51.8786 59.382 52.6271 57.5168 53.9749 56.1241C55.3227 54.7315 57.1624 53.9223 59.0997 53.87H59.8897C61.6938 53.9713 63.3996 54.7248 64.6895 55.9902C65.9793 57.2556 66.7653 58.9467 66.9011 60.7485C67.0369 62.5503 66.5132 64.34 65.4275 65.7845C64.3419 67.2289 62.7683 68.2295 60.9997 68.6V68.6ZM108.15 60.65C105.55 65.55 104.68 72.08 105.49 80.58V84.08C105.02 86.67 101.67 88.71 96.6997 89.47V61.79V60.64C96.6297 55.5 98.8197 52.49 100.7 50.86C102.587 49.2183 104.955 48.2324 107.45 48.05C106.1 52.71 106.34 57 108.15 60.65V60.65ZM98.0597 47.87C96.6917 49.073 95.5562 50.5169 94.7097 52.13C93.4496 49.698 91.5296 47.6705 89.1697 46.28C90.6697 42.72 92.1697 40.07 94.6197 38.09C97.0997 40.09 98.6197 42.77 100.11 46.38C99.385 46.8171 98.6992 47.3156 98.0597 47.87V47.87ZM92.7297 89.46C87.7297 88.71 84.3997 86.68 83.9397 84.18V80.58C84.7597 72.03 83.9397 65.48 81.3097 60.58C83.0897 56.89 83.3097 52.68 81.9997 48.04C84.4938 48.2245 86.8615 49.2102 88.7497 50.85C90.5997 52.48 92.7497 55.49 92.7497 60.63L92.7297 89.46ZM81.2797 127.8C83.8797 122.9 84.7497 116.37 83.9397 107.86V105.4C84.4897 102.32 88.7397 100.62 92.7397 100V126.66V127.81C92.8097 132.95 90.6197 135.97 88.7397 137.59C86.8576 139.233 84.4918 140.22 81.9997 140.4C83.3297 135.74 83.0897 131.5 81.2797 127.8ZM91.3697 140.58C92.7374 139.381 93.873 137.94 94.7197 136.33C95.5568 137.943 96.6898 139.385 98.0597 140.58C98.6678 141.104 99.3165 141.579 99.9997 142C98.5297 145.47 97.0697 148.05 94.6297 150C92.2097 148.06 90.7597 145.51 89.3097 142.1C90.0398 141.655 90.7291 141.146 91.3697 140.58V140.58ZM96.7097 126.66V100C101.66 100.75 105.01 102.78 105.49 105.27V107.86C104.67 116.41 105.49 122.96 108.12 127.86C106.34 131.55 106.12 135.76 107.43 140.4C104.934 140.222 102.565 139.235 100.68 137.59C98.8297 135.97 96.6797 132.95 96.6797 127.81V126.66H96.7097ZM130.55 68.79C128.615 68.7365 126.777 67.9345 125.423 66.5529C124.068 65.1713 123.302 63.3178 123.287 61.3829C123.271 59.448 124.007 57.5825 125.339 56.1793C126.672 54.776 128.497 53.9446 130.43 53.86H130.61C132.542 53.9381 134.369 54.7627 135.706 56.1604C137.043 57.5581 137.786 59.4198 137.778 61.3539C137.77 63.2881 137.013 65.1438 135.664 66.5306C134.316 67.9175 132.483 68.7274 130.55 68.79V68.79ZM119.1 61.32C119.102 63.0531 119.498 64.7631 120.26 66.32C117.314 65.1304 114.739 63.1766 112.8 60.66C113.02 60.335 113.26 60.0244 113.52 59.73C115.494 57.574 118.034 56.015 120.85 55.23C119.703 57.0541 119.096 59.1655 119.1 61.32V61.32ZM69.7597 66.07C70.4335 64.5779 70.7747 62.9571 70.7597 61.32C70.7565 59.2336 70.1861 57.1873 69.1097 55.4C71.7206 56.1933 74.0695 57.6752 75.9097 59.69C76.1686 59.9884 76.409 60.3023 76.6297 60.63C74.8518 63.0099 72.4838 64.885 69.7597 66.07ZM70.7597 127.13C70.7757 125.493 70.4344 123.872 69.7597 122.38C72.4748 123.557 74.8409 125.413 76.6297 127.77C76.3997 128.09 76.1697 128.4 75.9197 128.69C74.0939 130.688 71.7721 132.168 69.1897 132.98C70.2501 131.213 70.8069 129.19 70.7997 127.13H70.7597ZM120.22 122.13C119.364 123.881 118.971 125.823 119.077 127.769C119.184 129.716 119.787 131.603 120.83 133.25C117.991 132.487 115.429 130.934 113.44 128.77C113.181 128.475 112.94 128.164 112.72 127.84C114.67 125.284 117.275 123.304 120.26 122.11L120.22 122.13ZM130.28 134.59C128.341 134.54 126.498 133.734 125.145 132.344C123.792 130.954 123.036 129.09 123.04 127.15C123.036 125.678 123.467 124.238 124.279 123.01C125.091 121.783 126.248 120.823 127.604 120.25C128.96 119.677 130.454 119.518 131.9 119.792C133.347 120.066 134.679 120.761 135.732 121.79C136.784 122.819 137.509 124.136 137.816 125.576C138.122 127.015 137.997 128.513 137.455 129.882C136.913 131.25 135.979 132.428 134.77 133.267C133.561 134.107 132.131 134.57 130.66 134.6L130.28 134.59Z" fill="#6B9458"/>
<path d="M63.1903 76.21L63.4203 75.71L61.1203 74.77L60.9003 75.24C57.3403 83.12 51.6003 89.69 45.1603 93.24L43.2803 94.24L45.1503 95.3C51.6503 98.99 57.3903 105.56 60.9003 113.3L61.1203 113.77L63.4203 112.77L63.1903 112.27C59.9566 104.971 54.7648 98.7093 48.1903 94.18C54.768 89.7058 59.9636 83.4814 63.1903 76.21V76.21Z" fill="#6B9458"/>
<path d="M144.891 93.26C138.451 89.69 132.711 83.12 129.141 75.26L128.931 74.79L126.641 75.73L126.861 76.23C130.065 83.5528 135.263 89.8279 141.861 94.34C135.284 98.8669 130.092 105.129 126.861 112.43L126.641 112.93L128.931 113.93L129.141 113.46C132.661 105.69 138.401 99.12 144.911 95.46L146.771 94.4L144.891 93.26Z" fill="#6B9458"/>
<path d="M353.395 138.062C353.239 138.81 352.939 139.522 352.51 140.155C352.26 140.552 351.903 140.872 351.48 141.077C350.991 141.24 350.477 141.316 349.961 141.301H348.971C348.02 141.301 347.809 141.13 347.809 141.13C347.585 140.334 347.513 139.503 347.597 138.681V136.114H348.495C348.841 136.098 349.187 136.125 349.526 136.193C349.621 136.233 349.697 136.308 349.737 136.403C349.85 136.801 349.89 137.216 349.856 137.628V138.246H351.467V132.559H349.856V133.138C349.874 133.513 349.848 133.889 349.776 134.257C349.776 134.257 349.777 134.362 349.565 134.428C349.202 134.537 348.821 134.577 348.443 134.547H347.597V130.123H348.918C349.547 130.099 350.176 130.147 350.793 130.268C351.104 130.345 351.377 130.532 351.559 130.795C351.904 131.325 352.134 131.921 352.233 132.546L352.325 132.993H353.884L353.461 128.53H342.896V130.123H343.463C343.784 130.093 344.108 130.129 344.414 130.228C344.49 130.308 344.536 130.41 344.546 130.518C344.584 131.149 344.584 131.783 344.546 132.414V138.918C344.592 139.571 344.592 140.226 344.546 140.88C344.526 141.015 344.461 141.14 344.362 141.235C344.076 141.347 343.768 141.387 343.463 141.353H342.618V142.947H354.676L355.033 137.68H353.501L353.395 138.062Z" fill="#6B9458"/>
<path d="M373.629 135.046C372.797 134.585 371.941 134.168 371.066 133.795C370.232 133.47 369.449 133.027 368.742 132.479C368.576 132.338 368.444 132.162 368.355 131.964C368.266 131.766 368.222 131.55 368.227 131.333C368.232 130.952 368.378 130.587 368.636 130.306C368.813 130.145 369.022 130.022 369.25 129.947C369.477 129.872 369.718 129.847 369.957 129.872C370.288 129.867 370.618 129.927 370.926 130.049C371.234 130.171 371.515 130.352 371.753 130.583C372.339 131.154 372.739 131.888 372.902 132.689L373.008 133.124H374.474V128.503H372.942V129.029C372.954 129.125 372.954 129.223 372.942 129.319C372.586 128.997 372.174 128.743 371.727 128.568C371.156 128.357 370.552 128.25 369.944 128.252C368.867 128.224 367.822 128.622 367.038 129.358C366.663 129.717 366.366 130.149 366.166 130.626C365.966 131.104 365.868 131.618 365.876 132.136C365.877 132.85 366.059 133.552 366.404 134.177C366.724 134.779 367.186 135.295 367.751 135.678C368.548 136.162 369.383 136.58 370.247 136.929C371.083 137.234 371.86 137.68 372.546 138.245C372.718 138.417 372.852 138.623 372.939 138.85C373.025 139.077 373.062 139.319 373.047 139.562C373.043 139.821 372.988 140.077 372.883 140.314C372.779 140.551 372.628 140.766 372.44 140.944C372.207 141.165 371.93 141.334 371.628 141.44C371.325 141.547 371.003 141.589 370.683 141.563C368.9 141.563 367.791 140.352 367.289 137.863L367.197 137.403H365.678V142.814H367.223L367.302 142.34C367.302 142.195 367.302 142.063 367.395 141.932C368.348 142.786 369.586 143.255 370.868 143.248C372.134 143.305 373.371 142.865 374.315 142.024C374.748 141.615 375.089 141.12 375.316 140.571C375.544 140.022 375.653 139.431 375.636 138.838C375.65 138.073 375.459 137.318 375.081 136.652C374.751 135.996 374.249 135.441 373.629 135.046V135.046Z" fill="#6B9458"/>
<path d="M386.043 128.477L385.95 132.822H387.482L387.561 132.335C387.623 131.75 387.798 131.182 388.077 130.663C388.314 130.294 388.486 130.202 388.565 130.176C389.088 130.08 389.62 130.044 390.15 130.07H391.524V138.865C391.581 139.535 391.581 140.209 391.524 140.879C391.518 140.941 391.501 141.001 391.471 141.055C391.441 141.11 391.401 141.157 391.352 141.195C391.075 141.302 390.776 141.343 390.48 141.314H389.16V142.907H396.939V141.314H395.724C395.024 141.314 394.852 141.195 394.839 141.182C394.825 141.169 394.707 141.09 394.68 140.84C394.605 140.189 394.578 139.533 394.601 138.878V130.084H396.173C396.616 130.066 397.06 130.106 397.493 130.202C397.716 130.299 397.902 130.465 398.022 130.676C398.302 131.195 398.481 131.762 398.55 132.348L398.629 132.835H400.122L400.029 128.49L386.043 128.477Z" fill="#6B9458"/>
<path d="M411.612 140.313C411.449 140.471 411.32 140.659 411.232 140.867C411.143 141.075 411.097 141.299 411.097 141.524C411.096 141.972 411.272 142.402 411.585 142.723C411.742 142.89 411.933 143.024 412.144 143.114C412.355 143.205 412.583 143.251 412.814 143.249C413.041 143.249 413.266 143.205 413.476 143.118C413.686 143.031 413.876 142.904 414.037 142.744C414.198 142.584 414.325 142.394 414.412 142.184C414.499 141.975 414.544 141.751 414.544 141.524C414.546 141.298 414.502 141.074 414.413 140.865C414.324 140.657 414.193 140.469 414.029 140.313C413.705 139.999 413.272 139.823 412.82 139.823C412.369 139.823 411.935 139.999 411.612 140.313V140.313Z" fill="#6B9458"/>
<path d="M430.604 138.246C431.659 137.259 432.586 136.145 433.364 134.929C433.762 134.163 433.97 133.315 433.972 132.453C434.009 131.838 433.898 131.223 433.647 130.659C433.397 130.096 433.014 129.601 432.532 129.215C431.662 128.546 430.594 128.184 429.495 128.184C428.396 128.184 427.328 128.546 426.457 129.215C425.997 129.545 425.625 129.984 425.374 130.491C425.123 130.998 425.001 131.559 425.017 132.124C424.997 132.795 425.181 133.456 425.546 134.02C425.955 134.586 426.721 135.337 427.712 134.402C427.857 134.295 427.98 134.159 428.071 134.002C428.161 133.846 428.219 133.673 428.24 133.493C428.219 133.325 428.158 133.164 428.061 133.024C427.965 132.884 427.836 132.77 427.685 132.69C427.506 132.58 427.36 132.424 427.26 132.239C427.16 132.055 427.111 131.847 427.117 131.637C427.124 131.181 427.304 130.743 427.619 130.413C427.784 130.229 427.989 130.085 428.217 129.992C428.446 129.898 428.693 129.858 428.94 129.873C429.228 129.861 429.515 129.912 429.782 130.021C430.048 130.13 430.288 130.295 430.485 130.505C430.967 131.111 431.194 131.881 431.119 132.651C431.117 133.576 430.871 134.484 430.406 135.284C429.711 136.455 428.882 137.542 427.936 138.523C427.06 139.518 426.111 140.447 425.097 141.301L424.872 141.472V142.946H431.647C431.606 143.101 431.584 143.26 431.581 143.42V144H433.074L433.945 140.59H428.28C428.966 139.918 429.746 139.168 430.604 138.246Z" fill="#6B9458"/>
<path d="M448.158 128.201C447.414 128.205 446.686 128.408 446.047 128.788C445.408 129.167 444.883 129.71 444.526 130.36C443.683 132.019 443.244 133.852 443.244 135.712C443.244 137.571 443.683 139.405 444.526 141.064C444.88 141.718 445.405 142.265 446.046 142.646C446.686 143.027 447.418 143.229 448.164 143.229C448.91 143.229 449.642 143.027 450.283 142.646C450.924 142.265 451.449 141.718 451.803 141.064C452.649 139.408 453.091 137.576 453.091 135.718C453.091 133.86 452.649 132.028 451.803 130.373C451.448 129.717 450.922 129.169 450.28 128.786C449.639 128.404 448.905 128.202 448.158 128.201V128.201ZM449.703 140.59C449.593 140.905 449.382 141.175 449.103 141.358C448.824 141.541 448.491 141.628 448.158 141.603C447.857 141.608 447.56 141.53 447.301 141.376C447.042 141.223 446.831 141.001 446.692 140.735C446.414 140.287 446.071 139.036 446.071 135.718C446.071 132.401 446.414 131.137 446.692 130.689C446.834 130.425 447.045 130.204 447.304 130.05C447.562 129.896 447.857 129.815 448.158 129.815C448.458 129.815 448.754 129.896 449.012 130.05C449.27 130.204 449.481 130.425 449.624 130.689C449.901 131.137 450.244 132.374 450.244 135.718C450.343 137.361 450.16 139.008 449.703 140.59V140.59Z" fill="#6B9458"/>
<path d="M468.219 141.09C468.219 140.866 468.219 140.34 468.219 139.484V128.201H466.991L466.832 128.319C466.163 128.74 465.377 128.938 464.587 128.885H464.032V130.492H465.036C465.22 130.467 465.407 130.467 465.591 130.492V130.492C465.657 130.571 465.67 130.61 465.67 130.65C465.67 130.689 465.67 131.36 465.67 132.229V139.418C465.67 140.55 465.67 140.906 465.67 141.024C465.674 141.068 465.674 141.112 465.67 141.156C465.482 141.213 465.285 141.235 465.089 141.222H464.164V142.828H469.87V141.222H468.906C468.391 141.287 468.272 141.208 468.219 141.09Z" fill="#6B9458"/>
<path d="M489.826 131.966C489.539 130.955 488.977 130.044 488.202 129.332C487.4 128.598 486.345 128.202 485.257 128.227C484.618 128.212 483.984 128.337 483.4 128.594C482.815 128.851 482.295 129.234 481.876 129.714C481.015 130.652 480.543 131.88 480.555 133.151C480.516 134.438 480.991 135.688 481.876 136.626C482.288 137.075 482.79 137.432 483.35 137.675C483.91 137.917 484.514 138.04 485.125 138.035C485.729 138.036 486.324 137.887 486.855 137.601C487.019 137.509 487.178 137.408 487.33 137.298C487.334 138.394 487.095 139.477 486.63 140.471C486.46 140.825 486.188 141.121 485.85 141.322C485.512 141.523 485.122 141.621 484.728 141.603C484.493 141.628 484.256 141.579 484.05 141.464C483.844 141.348 483.68 141.171 483.579 140.958C483.475 140.687 483.295 140.452 483.061 140.279C482.827 140.107 482.549 140.004 482.259 139.984C482.105 139.972 481.951 139.993 481.807 140.046C481.663 140.098 481.531 140.181 481.421 140.288C481.311 140.395 481.225 140.524 481.169 140.667C481.113 140.81 481.089 140.963 481.096 141.116C481.123 141.459 481.245 141.788 481.448 142.067C481.651 142.346 481.927 142.563 482.246 142.696C482.932 143.074 483.707 143.265 484.491 143.249C485.353 143.255 486.201 143.034 486.95 142.608C487.699 142.183 488.322 141.568 488.757 140.826C489.799 139.115 490.322 137.14 490.262 135.139C490.268 134.066 490.121 132.997 489.826 131.966ZM483.619 135.073C483.455 134.486 483.384 133.878 483.408 133.269C483.343 132.333 483.53 131.397 483.949 130.557C484.092 130.314 484.3 130.117 484.55 129.986C484.8 129.856 485.081 129.798 485.362 129.82C485.758 129.817 486.14 129.962 486.432 130.228C486.803 130.56 487.065 130.996 487.185 131.478C487.347 132.057 487.431 132.655 487.436 133.256C487.53 134.126 487.305 135.001 486.802 135.718C486.493 136.068 486.064 136.289 485.599 136.338C485.134 136.387 484.668 136.259 484.293 135.981C483.984 135.751 483.749 135.435 483.619 135.073Z" fill="#6B9458"/>
<path d="M552.058 135.087H515.606V136.64H552.058V135.087Z" fill="#6B9458" stroke="#6B9458" stroke-width="1.0772" stroke-miterlimit="10"/>
<path d="M316.942 135.087H280.49V136.64H316.942V135.087Z" fill="#6B9458" stroke="#6B9458" stroke-width="1.0772" stroke-miterlimit="10"/>
<path d="M277.586 91.3764H258.277V89.0197H259.835C260.753 89.062 261.673 88.9823 262.569 88.7827C263.058 88.6116 263.296 88.3351 263.296 87.927C262.888 86.5109 262.171 85.2024 261.196 84.0957L253.734 73.5631L249.336 77.4207V84.912C249.272 85.4845 249.332 86.064 249.512 86.6113C249.692 87.1587 249.988 87.6612 250.379 88.085C251.564 88.8132 252.956 89.1324 254.341 88.9934V91.3501H237V88.9934C238.116 89.05 239.232 88.8936 240.289 88.5326C240.587 88.4147 240.859 88.2371 241.086 88.0107C241.313 87.7842 241.491 87.5138 241.609 87.216C241.848 86.4676 241.956 85.6837 241.926 84.8989V63.2017C241.957 62.4187 241.858 61.636 241.636 60.8845C241.51 60.5803 241.322 60.3059 241.083 60.0791C240.844 59.8522 240.56 59.6781 240.249 59.5679C239.208 59.1969 238.105 59.0271 237 59.0676V56.7241H254.381V59.0676C252.241 59.0676 250.868 59.3836 250.247 59.9892C249.538 60.9022 249.211 62.0537 249.336 63.2017V73.629L260.152 64.2023C260.757 63.7005 261.306 63.1356 261.79 62.517C262.126 62.0632 262.306 61.5141 262.305 60.9503C262.305 59.7259 261.13 59.1071 258.792 59.1071V56.7636H274.641V59.1071C273.628 59.1805 272.622 59.3257 271.629 59.5416C270.834 59.7444 270.069 60.0545 269.358 60.4632C268.519 60.97 267.716 61.533 266.954 62.1484C266.082 62.8462 264.709 64.018 262.82 65.6505L259.188 68.7971L269.437 83.3585C270.244 84.5665 271.126 85.7229 272.078 86.8211C272.7 87.5298 273.471 88.0919 274.337 88.4668C275.354 88.851 276.432 89.0516 277.52 89.0593L277.586 91.3764Z" fill="#6B9458"/>
<path d="M323.534 91.3764H307.157V89.0197C308.174 89.0609 309.192 88.9635 310.182 88.7301C310.477 88.6428 310.732 88.4555 310.903 88.2008C311.074 87.946 311.151 87.6396 311.119 87.3345C311.12 86.8019 311.017 86.2744 310.816 85.781L309.178 81.6337H297.899L297.054 83.8851C296.674 84.755 296.433 85.6791 296.341 86.6236C296.289 87.0328 296.378 87.4473 296.594 87.799C296.81 88.1507 297.14 88.4187 297.529 88.5589C298.424 88.8489 299.362 88.9869 300.303 88.9671V91.3237H288.337V88.9671C289.18 88.9969 290.017 88.8111 290.767 88.4273C291.576 87.935 292.238 87.2346 292.682 86.3997C293.452 85.0483 294.106 83.6345 294.637 82.1735L304.661 56H307.104L317.67 82.9898C318.449 84.8989 318.991 86.1891 319.361 86.8606C319.7 87.5094 320.218 88.0484 320.853 88.4141C321.671 88.8233 322.581 89.0139 323.495 88.9671L323.534 91.3764ZM308.32 79.1849L303.459 67.1514L298.903 79.2376L308.32 79.1849Z" fill="#6B9458"/>
<path d="M367.843 66.5589H365.413C365.337 64.8818 364.847 63.2493 363.987 61.8061C363.446 60.923 362.615 60.2532 361.636 59.9102C360.693 59.6591 359.719 59.5395 358.744 59.5548H354.332V84.9384C354.304 85.7265 354.407 86.5138 354.636 87.2687C354.768 87.5777 354.965 87.8551 355.213 88.0821C355.461 88.3092 355.755 88.4808 356.076 88.5853C357.143 88.9387 358.267 89.0948 359.391 89.0461V91.4028H341.957V89.0461C344.083 89.0461 345.47 88.7432 346.078 88.1245C346.788 87.2322 347.12 86.0979 347.002 84.9647V59.5548H343.317C342.102 59.5328 340.888 59.6476 339.699 59.8971C338.652 60.1969 337.753 60.8722 337.176 61.7929C336.328 63.2366 335.898 64.8864 335.935 66.5589H333.491V56.7241H367.83L367.843 66.5589Z" fill="#6B9458"/>
<path d="M419.564 74.05C419.578 77.1425 418.8 80.1875 417.306 82.8973C415.754 85.6783 413.441 87.9616 410.636 89.4802C407.43 91.2024 403.829 92.0602 400.189 91.9686C397.224 92.0283 394.277 91.491 391.525 90.3887C389.194 89.4495 387.105 88.0007 385.41 86.1493C383.869 84.4522 382.675 82.4708 381.897 80.3169C380.998 77.8678 380.626 75.2574 380.806 72.6556C380.986 70.0537 381.713 67.5188 382.94 65.2157C384.461 62.434 386.754 60.1484 389.544 58.6328C392.756 56.8878 396.374 56.0202 400.031 56.1182C403.278 56.0255 406.507 56.6458 409.487 57.9351C411.847 58.9629 413.932 60.5275 415.576 62.5036C416.956 64.2296 418.008 66.1929 418.679 68.2965C419.265 70.1584 419.564 72.0985 419.564 74.05V74.05ZM411.257 73.9446C411.27 72.0939 411.102 70.2464 410.755 68.4282C410.456 66.7651 409.862 65.1687 408.998 63.7148C408.171 62.3133 406.986 61.155 405.564 60.3576C403.91 59.4877 402.058 59.0612 400.189 59.12C397.702 58.9671 395.248 59.7467 393.308 61.3055C391.665 62.7521 390.492 64.6545 389.94 66.7693C389.336 69.113 389.038 71.5248 389.055 73.9446C389.064 75.4412 389.161 76.9359 389.346 78.421C389.546 80.0664 389.991 81.6727 390.667 83.187C391.413 84.8435 392.601 86.2643 394.1 87.2947C395.907 88.4789 398.042 89.0641 400.202 88.9668C402.349 89.0673 404.47 88.4613 406.238 87.2421C407.724 86.1656 408.892 84.7103 409.619 83.029C410.284 81.5107 410.728 79.906 410.94 78.263C411.133 76.8312 411.239 75.3891 411.257 73.9446Z" fill="#6B9458"/>
<path d="M471.602 59.0678C470.392 59 469.18 59.17 468.036 59.5681C467.717 59.6959 467.431 59.8954 467.202 60.1512C466.973 60.407 466.806 60.7121 466.715 61.0427C466.504 62.0821 466.415 63.1426 466.451 64.2025V91.6794H464.1L441.357 64.7423V83.8327C441.319 84.8933 441.412 85.9546 441.635 86.9924C441.728 87.3253 441.895 87.6331 442.123 87.8929C442.352 88.1527 442.636 88.3579 442.955 88.4933C444.094 88.9131 445.309 89.0925 446.521 89.0199V91.3766H433.604V89.0199C434.744 89.0922 435.885 88.9123 436.946 88.4933C437.269 88.3639 437.556 88.1606 437.786 87.8999C438.015 87.6392 438.18 87.3283 438.267 86.9924C438.471 85.9521 438.555 84.892 438.518 83.8327V66.151C438.532 65.0745 438.492 63.9979 438.399 62.9254C438.338 62.2721 438.15 61.6369 437.844 61.0559C437.521 60.4815 437.028 60.0214 436.431 59.7393C435.569 59.3465 434.643 59.1144 433.697 59.0547V56.7112H443.827L463.638 80.0146V64.2157C463.663 63.2171 463.575 62.2188 463.374 61.2402C463.279 60.8965 463.113 60.5768 462.885 60.3022C462.657 60.0275 462.374 59.8043 462.053 59.6471C460.983 59.2071 459.827 59.0136 458.672 59.081V56.7375H471.655L471.602 59.0678Z" fill="#6B9458"/>
<path d="M522.092 59.0677C521.362 59.076 520.638 59.1868 519.939 59.3968C519.369 59.5881 518.856 59.9184 518.447 60.3579C517.978 60.8965 517.583 61.4941 517.271 62.1353C516.875 62.8857 516.32 64.0575 515.62 65.6637L504.289 91.9952H501.911L490.025 64.3471C489.537 63.1233 488.963 61.9355 488.308 60.7924C487.921 60.1866 487.346 59.724 486.67 59.4758C485.681 59.1818 484.65 59.0528 483.619 59.094V56.7505H501.304V59.094C500.13 59.0991 498.96 59.236 497.817 59.5021C497.501 59.6066 497.232 59.8177 497.056 60.0989C496.88 60.3802 496.808 60.714 496.853 61.0425C496.872 61.8935 497.079 62.7298 497.46 63.4914L505.464 82.0156L512.847 64.7158C513.331 63.7429 513.652 62.6978 513.798 61.6218C513.861 61.1976 513.781 60.7644 513.571 60.3903C513.361 60.0161 513.032 59.7222 512.635 59.5548C511.51 59.2368 510.345 59.0817 509.175 59.094V56.7505H522.052L522.092 59.0677Z" fill="#6B9458"/>
<path d="M551.94 91.3765H534.309V89.0198C535.434 89.065 536.559 88.9226 537.637 88.5985C537.964 88.5005 538.264 88.3316 538.518 88.104C538.771 87.8763 538.971 87.5956 539.103 87.2819C539.373 86.513 539.494 85.6998 539.459 84.8857V63.2017C539.573 62.0627 539.237 60.9245 538.522 60.0288C537.901 59.4232 536.488 59.1072 534.309 59.1072V56.7637H551.94V59.1072C550.814 59.0585 549.688 59.2055 548.612 59.5416C548.286 59.6436 547.985 59.8137 547.73 60.0408C547.475 60.2678 547.271 60.5465 547.133 60.8582C546.872 61.6293 546.756 62.4414 546.789 63.2544V85.0305C546.757 85.8165 546.869 86.6019 547.12 87.3477C547.254 87.6532 547.45 87.9279 547.695 88.1544C547.94 88.3809 548.23 88.5545 548.546 88.6643C549.639 89.0258 550.79 89.1821 551.94 89.1251V91.3765Z" fill="#6B9458"/>
<path d="M595.999 79.9749L595.709 91.3764H564.751V89.0197C566.877 89.0197 568.264 88.717 568.872 88.0982C569.582 87.2059 569.914 86.0716 569.796 84.9384V63.2017C569.826 62.4187 569.728 61.636 569.506 60.8845C569.387 60.5868 569.209 60.3163 568.982 60.0899C568.755 59.8634 568.484 59.6858 568.185 59.568C567.103 59.1963 565.96 59.0354 564.817 59.094V56.7505H593.596L594.058 65.7427H591.707C591.38 64.2109 590.757 62.7574 589.871 61.4638C589.297 60.683 588.472 60.121 587.534 59.8708C586.252 59.6473 584.951 59.5503 583.651 59.5811H577.139V71.8253H580.679C581.597 71.8629 582.515 71.7562 583.4 71.5093C583.698 71.4184 583.973 71.2609 584.202 71.0488C584.43 70.8367 584.608 70.5755 584.72 70.2849C585.015 69.3777 585.179 68.4336 585.209 67.4806H587.666V79.0006H585.315C585.297 78.0399 585.123 77.0883 584.8 76.1831C584.679 75.8989 584.499 75.6437 584.271 75.4348C584.043 75.2258 583.773 75.068 583.479 74.9719C582.599 74.7239 581.685 74.6173 580.771 74.6559H577.179V82.8187C577.179 84.1353 577.179 85.1754 577.285 85.8073C577.329 86.3689 577.52 86.909 577.839 87.374C578.2 87.8392 578.715 88.1613 579.292 88.2825C580.241 88.4956 581.213 88.5885 582.185 88.559H584.971C586.109 88.5679 587.243 88.4172 588.339 88.1113C589.597 87.686 590.694 86.8864 591.482 85.8205C592.699 84.1024 593.442 82.0956 593.635 80.0012L595.999 79.9749Z" fill="#6B9458"/>
</svg>
